module go.arsenm.dev/itd

go 1.18

replace fyne.io/x/fyne => github.com/metal3d/fyne-x v0.0.0-20220508095732-177117e583fb

require (
	fyne.io/fyne/v2 v2.3.0
	fyne.io/x/fyne v0.0.0-20220107050838-c4a1de51d4ce
	github.com/cheggaaa/pb/v3 v3.1.0
	github.com/gen2brain/dlgs v0.0.0-20220603100644-40c77870fa8d
	github.com/godbus/dbus/v5 v5.1.0
	github.com/knadh/koanf v1.4.4
	github.com/mattn/go-isatty v0.0.17
	github.com/mozillazg/go-pinyin v0.19.0
	github.com/urfave/cli/v2 v2.23.7
	go.arsenm.dev/drpc v0.0.0-20230104221210-aa7525743d98
	go.arsenm.dev/infinitime v0.0.0-20230104230015-512d48bc2469
	go.arsenm.dev/logger v0.0.0-20230104225304-d706171ea6df
	golang.org/x/text v0.5.0
	google.golang.org/protobuf v1.28.1
	modernc.org/sqlite v1.20.1
	storj.io/drpc v0.0.32
)

require (
	fyne.io/systray v1.10.1-0.20221115204952-d16a6177e6f1 // indirect
	github.com/VividCortex/ewma v1.2.0 // indirect
	github.com/benoitkugler/textlayout v0.3.0 // indirect
	github.com/cpuguy83/go-md2man/v2 v2.0.2 // indirect
	github.com/davecgh/go-spew v1.1.1 // indirect
	github.com/dustin/go-humanize v1.0.0 // indirect
	github.com/fatih/color v1.13.0 // indirect
	github.com/fatih/structs v1.1.0 // indirect
	github.com/fredbi/uri v1.0.0 // indirect
	github.com/fsnotify/fsnotify v1.6.0 // indirect
	github.com/fxamacker/cbor/v2 v2.4.0 // indirect
	github.com/fyne-io/gl-js v0.0.0-20220802150000-8e339395f381 // indirect
	github.com/fyne-io/glfw-js v0.0.0-20220517201726-bebc2019cd33 // indirect
	github.com/fyne-io/image v0.0.0-20221020213044-f609c6a24345 // indirect
	github.com/go-gl/gl v0.0.0-20211210172815-726fda9656d6 // indirect
	github.com/go-gl/glfw/v3.3/glfw v0.0.0-20221017161538-93cebf72946b // indirect
	github.com/go-text/typesetting v0.0.0-20221219135543-5d0d724ee181 // indirect
	github.com/goki/freetype v0.0.0-20220119013949-7a161fd3728c // indirect
	github.com/google/uuid v1.3.0 // indirect
	github.com/gookit/color v1.5.1 // indirect
	github.com/gopherjs/gopherjs v1.17.2 // indirect
	github.com/hanwen/go-fuse/v2 v2.2.0 // indirect
	github.com/hashicorp/yamux v0.1.1 // indirect
	github.com/jsummers/gobmp v0.0.0-20151104160322-e2ba15ffa76e // indirect
	github.com/kballard/go-shellquote v0.0.0-20180428030007-95032a82bc51 // indirect
	github.com/mattn/go-colorable v0.1.13 // indirect
	github.com/mattn/go-runewidth v0.0.14 // indirect
	github.com/mitchellh/copystructure v1.2.0 // indirect
	github.com/mitchellh/mapstructure v1.5.0 // indirect
	github.com/mitchellh/reflectwalk v1.0.2 // indirect
	github.com/muka/go-bluetooth v0.0.0-20220819140550-1d8857e3b268 // indirect
	github.com/pelletier/go-toml v1.9.5 // indirect
	github.com/pmezard/go-difflib v1.0.0 // indirect
	github.com/remyoudompheng/bigfft v0.0.0-20220927061507-ef77025ab5aa // indirect
	github.com/rivo/uniseg v0.4.3 // indirect
	github.com/russross/blackfriday/v2 v2.1.0 // indirect
	github.com/sirupsen/logrus v1.9.0 // indirect
	github.com/srwiley/oksvg v0.0.0-20221011165216-be6e8873101c // indirect
	github.com/srwiley/rasterx v0.0.0-20220730225603-2ab79fcdd4ef // indirect
	github.com/stretchr/testify v1.8.1 // indirect
	github.com/tevino/abool v1.2.0 // indirect
	github.com/x448/float16 v0.8.4 // indirect
	github.com/xo/terminfo v0.0.0-20210125001918-ca9a967f8778 // indirect
	github.com/xrash/smetrics v0.0.0-20201216005158-039620a65673 // indirect
	github.com/yuin/goldmark v1.5.3 // indirect
	github.com/zeebo/errs v1.3.0 // indirect
	golang.org/x/image v0.2.0 // indirect
	golang.org/x/mobile v0.0.0-20221110043201-43a038452099 // indirect
	golang.org/x/mod v0.7.0 // indirect
	golang.org/x/net v0.4.0 // indirect
	golang.org/x/sys v0.3.0 // indirect
	golang.org/x/tools v0.4.0 // indirect
	gopkg.in/yaml.v3 v3.0.1 // indirect
	honnef.co/go/js/dom v0.0.0-20221001195520-26252dedbe70 // indirect
	lukechampine.com/uint128 v1.2.0 // indirect
	modernc.org/cc/v3 v3.40.0 // indirect
	modernc.org/ccgo/v3 v3.16.13 // indirect
	modernc.org/libc v1.22.2 // indirect
	modernc.org/mathutil v1.5.0 // indirect
	modernc.org/memory v1.5.0 // indirect
	modernc.org/opt v0.1.3 // indirect
	modernc.org/strutil v1.1.3 // indirect
	modernc.org/token v1.1.0 // indirect
)
